{
    "properties": [], 
    "externalReferences": [], 
    "innerClasses": [], 
    "interfaces": [], 
    "constructors": [], 
    "namespace": null, 
    "name": "Anup_MappingWizard", 
    "tableDeclaration": {
        "type": "Anup_MappingWizard", 
        "modifiers": [
            "public"
        ], 
        "references": [], 
        "location": {
            "column": 14, 
            "line": 1
        }, 
        "name": "Anup_MappingWizard"
    }, 
    "key": "01p28000006kY1YAAU", 
    "variables": [], 
    "id": "01p28000006kY1YAAU", 
    "methods": []
}