{
    "properties": [
        {
            "modifiers": [
                "static", 
                "public"
            ], 
            "name": "WTSday", 
            "visibility": "PUBLIC", 
            "references": [], 
            "location": {
                "column": 23, 
                "line": 3
            }, 
            "type": "String"
        }, 
        {
            "modifiers": [
                "static", 
                "public"
            ], 
            "name": "start1", 
            "visibility": "PUBLIC", 
            "references": [], 
            "location": {
                "column": 23, 
                "line": 4
            }, 
            "type": "String"
        }, 
        {
            "modifiers": [
                "static", 
                "public"
            ], 
            "name": "start2", 
            "visibility": "PUBLIC", 
            "references": [], 
            "location": {
                "column": 23, 
                "line": 5
            }, 
            "type": "String"
        }, 
        {
            "modifiers": [
                "static", 
                "public"
            ], 
            "name": "end1", 
            "visibility": "PUBLIC", 
            "references": [], 
            "location": {
                "column": 23, 
                "line": 6
            }, 
            "type": "String"
        }, 
        {
            "modifiers": [
                "static", 
                "public"
            ], 
            "name": "end2", 
            "visibility": "PUBLIC", 
            "references": [], 
            "location": {
                "column": 23, 
                "line": 7
            }, 
            "type": "String"
        }, 
        {
            "modifiers": [
                "static", 
                "public"
            ], 
            "name": "workingTSFutureMehtodName", 
            "visibility": "PUBLIC", 
            "references": [], 
            "location": {
                "column": 22, 
                "line": 8
            }, 
            "type": "String"
        }, 
        {
            "modifiers": [
                "static", 
                "public"
            ], 
            "name": "bookedReosurceMap", 
            "visibility": "PUBLIC", 
            "references": [], 
            "location": {
                "column": 49, 
                "line": 9
            }, 
            "type": "Map"
        }, 
        {
            "modifiers": [
                "static", 
                "public"
            ], 
            "name": "actualResourceMap", 
            "visibility": "PUBLIC", 
            "references": [], 
            "location": {
                "column": 69, 
                "line": 10
            }, 
            "type": "Map"
        }, 
        {
            "modifiers": [
                "static", 
                "public"
            ], 
            "name": "appointmentMap", 
            "visibility": "PUBLIC", 
            "references": [], 
            "location": {
                "column": 34, 
                "line": 11
            }, 
            "type": "Map"
        }, 
        {
            "modifiers": [
                "static", 
                "public"
            ], 
            "name": "externalKey", 
            "visibility": "PUBLIC", 
            "references": [], 
            "location": {
                "column": 23, 
                "line": 12
            }, 
            "type": "Integer"
        }, 
        {
            "modifiers": [
                "static", 
                "public"
            ], 
            "name": "externalKeyOriginal", 
            "visibility": "PUBLIC", 
            "references": [], 
            "location": {
                "column": 23, 
                "line": 13
            }, 
            "type": "Integer"
        }
    ], 
    "externalReferences": [], 
    "innerClasses": [], 
    "interfaces": [], 
    "constructors": [], 
    "namespace": null, 
    "name": "SaveHelper", 
    "tableDeclaration": {
        "type": "SaveHelper", 
        "modifiers": [
            "public", 
            "with sharing"
        ], 
        "references": [], 
        "location": {
            "column": 27, 
            "line": 1
        }, 
        "name": "SaveHelper"
    }, 
    "key": "01p28000006LZf5AAG", 
    "variables": [
        {
            "type": "Map", 
            "modifiers": [], 
            "references": [], 
            "location": {
                "column": 66, 
                "line": 925
            }, 
            "name": "calendar"
        }, 
        {
            "type": "Event", 
            "modifiers": [], 
            "references": [], 
            "location": {
                "column": 50, 
                "line": 14
            }, 
            "name": "ev"
        }, 
        {
            "type": "Set", 
            "modifiers": [], 
            "references": [], 
            "location": {
                "column": 61, 
                "line": 14
            }, 
            "name": "Contactids"
        }, 
        {
            "type": "LIST", 
            "modifiers": [], 
            "references": [], 
            "location": {
                "column": 25, 
                "line": 16
            }, 
            "name": "Listevrels"
        }, 
        {
            "type": "Id", 
            "modifiers": [], 
            "references": [], 
            "location": {
                "column": 16, 
                "line": 19
            }, 
            "name": "evrelid"
        }, 
        {
            "type": "EventRelation", 
            "modifiers": [], 
            "references": [], 
            "location": {
                "column": 27, 
                "line": 21
            }, 
            "name": "evrel"
        }, 
        {
            "type": "String", 
            "modifiers": [], 
            "references": [], 
            "location": {
                "column": 61, 
                "line": 40
            }, 
            "name": "startTime"
        }, 
        {
            "type": "String", 
            "modifiers": [], 
            "references": [], 
            "location": {
                "column": 78, 
                "line": 40
            }, 
            "name": "EndTime"
        }, 
        {
            "type": "Map", 
            "modifiers": [], 
            "references": [], 
            "location": {
                "column": 115, 
                "line": 40
            }, 
            "name": "Rescal"
        }, 
        {
            "type": "Integer", 
            "modifiers": [], 
            "references": [], 
            "location": {
                "column": 130, 
                "line": 40
            }, 
            "name": "itr"
        }, 
        {
            "type": "Boolean", 
            "modifiers": [], 
            "references": [], 
            "location": {
                "column": 17, 
                "line": 43
            }, 
            "name": "returnValue"
        }, 
        {
            "type": "availableMatrix", 
            "modifiers": [], 
            "references": [], 
            "location": {
                "column": 29, 
                "line": 44
            }, 
            "name": "tempMap"
        }, 
        {
            "type": "Integer", 
            "modifiers": [], 
            "references": [], 
            "location": {
                "column": 21, 
                "line": 46
            }, 
            "name": "index"
        }, 
        {
            "type": "Integer", 
            "modifiers": [], 
            "references": [], 
            "location": {
                "column": 25, 
                "line": 47
            }, 
            "name": "i"
        }, 
        {
            "type": "Map", 
            "modifiers": [], 
            "references": [], 
            "location": {
                "column": 55, 
                "line": 70
            }, 
            "name": "saveData"
        }, 
        {
            "type": "Map", 
            "modifiers": [], 
            "references": [], 
            "location": {
                "column": 34, 
                "line": 72
            }, 
            "name": "Rescalendar"
        }, 
        {
            "type": "Boolean", 
            "modifiers": [], 
            "references": [], 
            "location": {
                "column": 13, 
                "line": 73
            }, 
            "name": "isbookingallowed"
        }, 
        {
            "type": "Boolean", 
            "modifiers": [], 
            "references": [], 
            "location": {
                "column": 13, 
                "line": 74
            }, 
            "name": "checkforbookingavailability"
        }, 
        {
            "type": "String", 
            "modifiers": [], 
            "references": [], 
            "location": {
                "column": 12, 
                "line": 75
            }, 
            "name": "msg"
        }, 
        {
            "type": "LIST", 
            "modifiers": [], 
            "references": [], 
            "location": {
                "column": 28, 
                "line": 78
            }, 
            "name": "jobLst"
        }, 
        {
            "type": "Id", 
            "modifiers": [], 
            "references": [], 
            "location": {
                "column": 12, 
                "line": 85
            }, 
            "name": "SpId"
        }, 
        {
            "type": "Id", 
            "modifiers": [], 
            "references": [], 
            "location": {
                "column": 12, 
                "line": 86
            }, 
            "name": "locid"
        }, 
        {
            "type": "Set", 
            "modifiers": [], 
            "references": [], 
            "location": {
                "column": 17, 
                "line": 87
            }, 
            "name": "SetLoccatmapids"
        }, 
        {
            "type": "Contact", 
            "modifiers": [], 
            "references": [], 
            "location": {
                "column": 17, 
                "line": 88
            }, 
            "name": "SerPro"
        }, 
        {
            "type": "LIST", 
            "modifiers": [], 
            "references": [], 
            "location": {
                "column": 44, 
                "line": 89
            }, 
            "name": "LocCatMap"
        }, 
        {
            "type": "LIST", 
            "modifiers": [], 
            "references": [], 
            "location": {
                "column": 21, 
                "line": 90
            }, 
            "name": "ListWorkingTsOtherLocs"
        }, 
        {
            "type": "nonServiceProviderCalendar", 
            "modifiers": [], 
            "references": [], 
            "location": {
                "column": 36, 
                "line": 112
            }, 
            "name": "nonserv"
        }, 
        {
            "type": "fetchCalendarUtils", 
            "modifiers": [], 
            "references": [], 
            "location": {
                "column": 28, 
                "line": 113
            }, 
            "name": "fetchCalendarObject"
        }, 
        {
            "type": "Event", 
            "modifiers": [], 
            "references": [], 
            "location": {
                "column": 23, 
                "line": 117
            }, 
            "name": "ev"
        }, 
        {
            "type": "Integer", 
            "modifiers": [], 
            "references": [], 
            "location": {
                "column": 29, 
                "line": 119
            }, 
            "name": "weekDay"
        }, 
        {
            "type": "availableMatrix", 
            "modifiers": [], 
            "references": [], 
            "location": {
                "column": 41, 
                "line": 122
            }, 
            "name": "availableMatrixObj"
        }, 
        {
            "type": "Integer", 
            "modifiers": [], 
            "references": [], 
            "location": {
                "column": 33, 
                "line": 123
            }, 
            "name": "STime"
        }, 
        {
            "type": "Integer", 
            "modifiers": [], 
            "references": [], 
            "location": {
                "column": 33, 
                "line": 124
            }, 
            "name": "ETime"
        }, 
        {
            "type": "Integer", 
            "modifiers": [], 
            "references": [], 
            "location": {
                "column": 25, 
                "line": 129
            }, 
            "name": "i"
        }, 
        {
            "type": "AvailabilityController", 
            "modifiers": [], 
            "references": [], 
            "location": {
                "column": 36, 
                "line": 159
            }, 
            "name": "AvailObj"
        }, 
        {
            "type": "Map", 
            "modifiers": [], 
            "references": [], 
            "location": {
                "column": 59, 
                "line": 189
            }, 
            "name": "clientDataMap"
        }, 
        {
            "type": "LIST", 
            "modifiers": [], 
            "references": [], 
            "location": {
                "column": 44, 
                "line": 193
            }, 
            "name": "locationCatLst"
        }, 
        {
            "type": "LIST", 
            "modifiers": [], 
            "references": [], 
            "location": {
                "column": 21, 
                "line": 194
            }, 
            "name": "eventLst"
        }, 
        {
            "type": "Integer", 
            "modifiers": [], 
            "references": [], 
            "location": {
                "column": 17, 
                "line": 195
            }, 
            "name": "key"
        }, 
        {
            "type": "String", 
            "modifiers": [], 
            "references": [], 
            "location": {
                "column": 16, 
                "line": 196
            }, 
            "name": "allDay"
        }, 
        {
            "type": "Datetime", 
            "modifiers": [], 
            "references": [], 
            "location": {
                "column": 18, 
                "line": 197
            }, 
            "name": "strDatetimeForInsertion"
        }, 
        {
            "type": "Datetime", 
            "modifiers": [], 
            "references": [], 
            "location": {
                "column": 18, 
                "line": 198
            }, 
            "name": "endDatetimeForInsertion"
        }, 
        {
            "type": "String", 
            "modifiers": [], 
            "references": [], 
            "location": {
                "column": 16, 
                "line": 211
            }, 
            "name": "serviceProviderId"
        }, 
        {
            "type": "Integer", 
            "modifiers": [], 
            "references": [], 
            "location": {
                "column": 17, 
                "line": 212
            }, 
            "name": "startTime"
        }, 
        {
            "type": "Integer", 
            "modifiers": [], 
            "references": [], 
            "location": {
                "column": 17, 
                "line": 214
            }, 
            "name": "endTime"
        }, 
        {
            "type": "Date", 
            "modifiers": [], 
            "references": [], 
            "location": {
                "column": 14, 
                "line": 219
            }, 
            "name": "startDate"
        }, 
        {
            "type": "Date", 
            "modifiers": [], 
            "references": [], 
            "location": {
                "column": 14, 
                "line": 220
            }, 
            "name": "endDate"
        }, 
        {
            "type": "Date", 
            "modifiers": [], 
            "references": [], 
            "location": {
                "column": 14, 
                "line": 221
            }, 
            "name": "checkDate"
        }, 
        {
            "type": "Date", 
            "modifiers": [], 
            "references": [], 
            "location": {
                "column": 14, 
                "line": 222
            }, 
            "name": "appdet"
        }, 
        {
            "type": "Integer", 
            "modifiers": [], 
            "references": [], 
            "location": {
                "column": 17, 
                "line": 242
            }, 
            "name": "numberDaysDue"
        }, 
        {
            "type": "Integer", 
            "modifiers": [], 
            "references": [], 
            "location": {
                "column": 17, 
                "line": 243
            }, 
            "name": "systemTimestamp"
        }, 
        {
            "type": "Contact", 
            "modifiers": [], 
            "references": [], 
            "location": {
                "column": 17, 
                "line": 244
            }, 
            "name": "serviceProvider"
        }, 
        {
            "type": "LIST", 
            "modifiers": [], 
            "references": [], 
            "location": {
                "column": 21, 
                "line": 249
            }, 
            "name": "listUnavailableevents"
        }, 
        {
            "type": "Integer", 
            "modifiers": [], 
            "references": [], 
            "location": {
                "column": 17, 
                "line": 250
            }, 
            "name": "itr"
        }, 
        {
            "type": "Time", 
            "modifiers": [], 
            "references": [], 
            "location": {
                "column": 14, 
                "line": 251
            }, 
            "name": "appEndTime"
        }, 
        {
            "type": "Time", 
            "modifiers": [], 
            "references": [], 
            "location": {
                "column": 14, 
                "line": 252
            }, 
            "name": "appStartTime"
        }, 
        {
            "type": "Event", 
            "modifiers": [], 
            "references": [], 
            "location": {
                "column": 19, 
                "line": 255
            }, 
            "name": "recurringUnAvailableAppointment"
        }, 
        {
            "type": "Date", 
            "modifiers": [], 
            "references": [], 
            "location": {
                "column": 26, 
                "line": 281
            }, 
            "name": "appenddate"
        }, 
        {
            "type": "Map", 
            "modifiers": [], 
            "references": [], 
            "location": {
                "column": 67, 
                "line": 385
            }, 
            "name": "jsonData"
        }, 
        {
            "type": "Integer", 
            "modifiers": [], 
            "references": [], 
            "location": {
                "column": 84, 
                "line": 385
            }, 
            "name": "recurringCode"
        }, 
        {
            "type": "String", 
            "modifiers": [], 
            "references": [], 
            "location": {
                "column": 12, 
                "line": 387
            }, 
            "name": "returnValue"
        }, 
        {
            "type": "Boolean", 
            "modifiers": [], 
            "references": [], 
            "location": {
                "column": 13, 
                "line": 388
            }, 
            "name": "isAllResourcesAvailableFlag"
        }, 
        {
            "type": "Date", 
            "modifiers": [], 
            "references": [], 
            "location": {
                "column": 14, 
                "line": 391
            }, 
            "name": "recurringStartDate"
        }, 
        {
            "type": "Date", 
            "modifiers": [], 
            "references": [], 
            "location": {
                "column": 14, 
                "line": 392
            }, 
            "name": "recurringEndDate"
        }, 
        {
            "type": "Date", 
            "modifiers": [], 
            "references": [], 
            "location": {
                "column": 32, 
                "line": 392
            }, 
            "name": "maxPossibleEndDate"
        }, 
        {
            "type": "Map", 
            "modifiers": [], 
            "references": [], 
            "location": {
                "column": 67, 
                "line": 393
            }, 
            "name": "systemAvailableResource"
        }, 
        {
            "type": "Map", 
            "modifiers": [], 
            "references": [], 
            "location": {
                "column": 46, 
                "line": 394
            }, 
            "name": "allocatedResource"
        }, 
        {
            "type": "LIST", 
            "modifiers": [], 
            "references": [], 
            "location": {
                "column": 20, 
                "line": 395
            }, 
            "name": "recurringListDate"
        }, 
        {
            "type": "Integer", 
            "modifiers": [], 
            "references": [], 
            "location": {
                "column": 21, 
                "line": 402
            }, 
            "name": "recurringCount"
        }, 
        {
            "type": "Date", 
            "modifiers": [], 
            "references": [], 
            "location": {
                "column": 18, 
                "line": 403
            }, 
            "name": "det"
        }, 
        {
            "type": "Integer", 
            "modifiers": [], 
            "references": [], 
            "location": {
                "column": 21, 
                "line": 414
            }, 
            "name": "recurringCount"
        }, 
        {
            "type": "Date", 
            "modifiers": [], 
            "references": [], 
            "location": {
                "column": 18, 
                "line": 417
            }, 
            "name": "det"
        }, 
        {
            "type": "Integer", 
            "modifiers": [], 
            "references": [], 
            "location": {
                "column": 25, 
                "line": 421
            }, 
            "name": "monthCode"
        }, 
        {
            "type": "String", 
            "modifiers": [], 
            "references": [], 
            "location": {
                "column": 16, 
                "line": 437
            }, 
            "name": "condition"
        }, 
        {
            "type": "LIST", 
            "modifiers": [], 
            "references": [], 
            "location": {
                "column": 57, 
                "line": 438
            }, 
            "name": "resTyeAppTypLst"
        }, 
        {
            "type": "fetchCalendarUtils", 
            "modifiers": [], 
            "references": [], 
            "location": {
                "column": 32, 
                "line": 443
            }, 
            "name": "fetchCalendarObject"
        }, 
        {
            "type": "Map", 
            "modifiers": [], 
            "references": [], 
            "location": {
                "column": 29, 
                "line": 446
            }, 
            "name": "humanResourceRequirements"
        }, 
        {
            "type": "Map", 
            "modifiers": [], 
            "references": [], 
            "location": {
                "column": 29, 
                "line": 448
            }, 
            "name": "nonHumanResourceRequirments"
        }, 
        {
            "type": "Map", 
            "modifiers": [], 
            "references": [], 
            "location": {
                "column": 35, 
                "line": 451
            }, 
            "name": "resourceTypeWithAllAssistantsMap"
        }, 
        {
            "type": "Map", 
            "modifiers": [], 
            "references": [], 
            "location": {
                "column": 40, 
                "line": 452
            }, 
            "name": "resourceTypeToActualResMap"
        }, 
        {
            "type": "Integer", 
            "modifiers": [], 
            "references": [], 
            "location": {
                "column": 21, 
                "line": 455
            }, 
            "name": "recurringCount"
        }, 
        {
            "type": "Set", 
            "modifiers": [], 
            "references": [], 
            "location": {
                "column": 21, 
                "line": 459
            }, 
            "name": "idSet"
        }, 
        {
            "type": "LIST", 
            "modifiers": [], 
            "references": [], 
            "location": {
                "column": 53, 
                "line": 460
            }, 
            "name": "aRBMlst"
        }, 
        {
            "type": "Integer", 
            "modifiers": [], 
            "references": [], 
            "location": {
                "column": 21, 
                "line": 463
            }, 
            "name": "adderNumber"
        }, 
        {
            "type": "Date", 
            "modifiers": [], 
            "references": [], 
            "location": {
                "column": 18, 
                "line": 464
            }, 
            "name": "startDate"
        }, 
        {
            "type": "Time", 
            "modifiers": [], 
            "references": [], 
            "location": {
                "column": 18, 
                "line": 465
            }, 
            "name": "tym"
        }, 
        {
            "type": "Datetime", 
            "modifiers": [], 
            "references": [], 
            "location": {
                "column": 22, 
                "line": 466
            }, 
            "name": "sT"
        }, 
        {
            "type": "Date", 
            "modifiers": [], 
            "references": [], 
            "location": {
                "column": 18, 
                "line": 467
            }, 
            "name": "endDate"
        }, 
        {
            "type": "Boolean", 
            "modifiers": [], 
            "references": [], 
            "location": {
                "column": 21, 
                "line": 472
            }, 
            "name": "loopExecutedOnce"
        }, 
        {
            "type": "LIST", 
            "modifiers": [], 
            "references": [], 
            "location": {
                "column": 27, 
                "line": 474
            }, 
            "name": "serviceProviderLst"
        }, 
        {
            "type": "Contact", 
            "modifiers": [], 
            "references": [], 
            "location": {
                "column": 21, 
                "line": 475
            }, 
            "name": "serviceProvider"
        }, 
        {
            "type": "Set", 
            "modifiers": [], 
            "references": [], 
            "location": {
                "column": 21, 
                "line": 477
            }, 
            "name": "serviceProviderIdSet"
        }, 
        {
            "type": "Datetime", 
            "modifiers": [], 
            "references": [], 
            "location": {
                "column": 30, 
                "line": 484
            }, 
            "name": "startDateTime"
        }, 
        {
            "type": "Datetime", 
            "modifiers": [], 
            "references": [], 
            "location": {
                "column": 30, 
                "line": 485
            }, 
            "name": "endDateTime"
        }, 
        {
            "type": "LIST", 
            "modifiers": [], 
            "references": [], 
            "location": {
                "column": 52, 
                "line": 533
            }, 
            "name": "lst"
        }, 
        {
            "type": "String", 
            "modifiers": [], 
            "references": [], 
            "location": {
                "column": 36, 
                "line": 534
            }, 
            "name": "returnStr"
        }, 
        {
            "type": "Integer", 
            "modifiers": [], 
            "references": [], 
            "location": {
                "column": 37, 
                "line": 535
            }, 
            "name": "itr"
        }, 
        {
            "type": "String", 
            "modifiers": [], 
            "references": [], 
            "location": {
                "column": 36, 
                "line": 536
            }, 
            "name": "str"
        }, 
        {
            "type": "Resource_Type__c", 
            "modifiers": [], 
            "references": [], 
            "location": {
                "column": 49, 
                "line": 537
            }, 
            "name": "resType"
        }, 
        {
            "type": "Integer", 
            "modifiers": [], 
            "references": [], 
            "location": {
                "column": 25, 
                "line": 557
            }, 
            "name": "itr"
        }, 
        {
            "type": "Date", 
            "modifiers": [], 
            "references": [], 
            "location": {
                "column": 26, 
                "line": 558
            }, 
            "name": "appointmentDate"
        }, 
        {
            "type": "Datetime", 
            "modifiers": [], 
            "references": [], 
            "location": {
                "column": 30, 
                "line": 561
            }, 
            "name": "startDateTime"
        }, 
        {
            "type": "LIST", 
            "modifiers": [], 
            "references": [], 
            "location": {
                "column": 48, 
                "line": 587
            }, 
            "name": "lst"
        }, 
        {
            "type": "String", 
            "modifiers": [], 
            "references": [], 
            "location": {
                "column": 32, 
                "line": 588
            }, 
            "name": "returnStr"
        }, 
        {
            "type": "Integer", 
            "modifiers": [], 
            "references": [], 
            "location": {
                "column": 33, 
                "line": 589
            }, 
            "name": "itr1"
        }, 
        {
            "type": "String", 
            "modifiers": [], 
            "references": [], 
            "location": {
                "column": 32, 
                "line": 590
            }, 
            "name": "str"
        }, 
        {
            "type": "Resource_Type__c", 
            "modifiers": [], 
            "references": [], 
            "location": {
                "column": 45, 
                "line": 591
            }, 
            "name": "resType"
        }, 
        {
            "type": "Savepoint", 
            "modifiers": [], 
            "references": [], 
            "location": {
                "column": 23, 
                "line": 608
            }, 
            "name": "Sp"
        }, 
        {
            "type": "LIST", 
            "modifiers": [], 
            "references": [], 
            "location": {
                "column": 61, 
                "line": 614
            }, 
            "name": "aRBMsLST"
        }, 
        {
            "type": "Integer", 
            "modifiers": [], 
            "references": [], 
            "location": {
                "column": 33, 
                "line": 615
            }, 
            "name": "intr2"
        }, 
        {
            "type": "Actual_Resource_Booked_Mapping__c", 
            "modifiers": [], 
            "references": [], 
            "location": {
                "column": 63, 
                "line": 617
            }, 
            "name": "ARBMC"
        }, 
        {
            "type": "Integer", 
            "modifiers": [], 
            "references": [], 
            "location": {
                "column": 33, 
                "line": 627
            }, 
            "name": "intr"
        }, 
        {
            "type": "Event", 
            "modifiers": [], 
            "references": [], 
            "location": {
                "column": 31, 
                "line": 629
            }, 
            "name": "e"
        }, 
        {
            "type": "Integer", 
            "modifiers": [], 
            "references": [], 
            "location": {
                "column": 33, 
                "line": 639
            }, 
            "name": "intr"
        }, 
        {
            "type": "String", 
            "modifiers": [], 
            "references": [], 
            "location": {
                "column": 42, 
                "line": 670
            }, 
            "name": "ServiceProviderId"
        }, 
        {
            "type": "Map", 
            "modifiers": [], 
            "references": [], 
            "location": {
                "column": 98, 
                "line": 670
            }, 
            "name": "allocatedResources"
        }, 
        {
            "type": "Map", 
            "modifiers": [], 
            "references": [], 
            "location": {
                "column": 135, 
                "line": 670
            }, 
            "name": "assistants"
        }, 
        {
            "type": "Map", 
            "modifiers": [], 
            "references": [], 
            "location": {
                "column": 166, 
                "line": 670
            }, 
            "name": "saveDataMap"
        }, 
        {
            "type": "Date", 
            "modifiers": [], 
            "references": [], 
            "location": {
                "column": 183, 
                "line": 670
            }, 
            "name": "RecurringStartDate"
        }, 
        {
            "type": "Date", 
            "modifiers": [], 
            "references": [], 
            "location": {
                "column": 208, 
                "line": 670
            }, 
            "name": "RecurringendDate"
        }, 
        {
            "type": "String", 
            "modifiers": [], 
            "references": [], 
            "location": {
                "column": 12, 
                "line": 672
            }, 
            "name": "uniqueAppointmentString"
        }, 
        {
            "type": "Date", 
            "modifiers": [], 
            "references": [], 
            "location": {
                "column": 10, 
                "line": 673
            }, 
            "name": "startDate"
        }, 
        {
            "type": "Boolean", 
            "modifiers": [], 
            "references": [], 
            "location": {
                "column": 13, 
                "line": 677
            }, 
            "name": "isClassAppointment"
        }, 
        {
            "type": "Booked_Resources__c", 
            "modifiers": [], 
            "references": [], 
            "location": {
                "column": 25, 
                "line": 678
            }, 
            "name": "bookedResource"
        }, 
        {
            "type": "Event", 
            "modifiers": [], 
            "references": [], 
            "location": {
                "column": 11, 
                "line": 679
            }, 
            "name": "appointment"
        }, 
        {
            "type": "Integer", 
            "modifiers": [], 
            "references": [], 
            "location": {
                "column": 13, 
                "line": 680
            }, 
            "name": "loopSize"
        }, 
        {
            "type": "LIST", 
            "modifiers": [], 
            "references": [], 
            "location": {
                "column": 45, 
                "line": 681
            }, 
            "name": "aRBMLst"
        }, 
        {
            "type": "Id", 
            "modifiers": [], 
            "references": [], 
            "location": {
                "column": 16, 
                "line": 688
            }, 
            "name": "resourceTypeId"
        }, 
        {
            "type": "Integer", 
            "modifiers": [], 
            "references": [], 
            "location": {
                "column": 29, 
                "line": 694
            }, 
            "name": "day"
        }, 
        {
            "type": "Id", 
            "modifiers": [], 
            "references": [], 
            "location": {
                "column": 28, 
                "line": 716
            }, 
            "name": "resourceId"
        }, 
        {
            "type": "Actual_Resource_Booked_Mapping__c", 
            "modifiers": [], 
            "references": [], 
            "location": {
                "column": 59, 
                "line": 718
            }, 
            "name": "aRBMObj"
        }, 
        {
            "type": "String", 
            "modifiers": [], 
            "references": [], 
            "location": {
                "column": 32, 
                "line": 742
            }, 
            "name": "locationCategoryMappingId"
        }, 
        {
            "type": "Date", 
            "modifiers": [], 
            "references": [], 
            "location": {
                "column": 30, 
                "line": 744
            }, 
            "name": "appointmentDate"
        }, 
        {
            "type": "LIST", 
            "modifiers": [], 
            "references": [], 
            "location": {
                "column": 38, 
                "line": 748
            }, 
            "name": "timings"
        }, 
        {
            "type": "Integer", 
            "modifiers": [], 
            "references": [], 
            "location": {
                "column": 33, 
                "line": 749
            }, 
            "name": "hour"
        }, 
        {
            "type": "Integer", 
            "modifiers": [], 
            "references": [], 
            "location": {
                "column": 33, 
                "line": 750
            }, 
            "name": "minutes"
        }, 
        {
            "type": "Time", 
            "modifiers": [], 
            "references": [], 
            "location": {
                "column": 30, 
                "line": 751
            }, 
            "name": "startTime"
        }, 
        {
            "type": "Time", 
            "modifiers": [], 
            "references": [], 
            "location": {
                "column": 30, 
                "line": 757
            }, 
            "name": "endTime"
        }, 
        {
            "type": "Datetime", 
            "modifiers": [], 
            "references": [], 
            "location": {
                "column": 34, 
                "line": 758
            }, 
            "name": "eventStartDate"
        }, 
        {
            "type": "Datetime", 
            "modifiers": [], 
            "references": [], 
            "location": {
                "column": 34, 
                "line": 760
            }, 
            "name": "eventEndDate"
        }, 
        {
            "type": "Date", 
            "modifiers": [], 
            "references": [], 
            "location": {
                "column": 14, 
                "line": 797
            }, 
            "name": "checkdate"
        }, 
        {
            "type": "String", 
            "modifiers": [], 
            "references": [], 
            "location": {
                "column": 20, 
                "line": 803
            }, 
            "name": "locationCategoryMappingId"
        }, 
        {
            "type": "Date", 
            "modifiers": [], 
            "references": [], 
            "location": {
                "column": 18, 
                "line": 805
            }, 
            "name": "appointmentDate"
        }, 
        {
            "type": "LIST", 
            "modifiers": [], 
            "references": [], 
            "location": {
                "column": 26, 
                "line": 807
            }, 
            "name": "timings"
        }, 
        {
            "type": "Integer", 
            "modifiers": [], 
            "references": [], 
            "location": {
                "column": 21, 
                "line": 808
            }, 
            "name": "hour"
        }, 
        {
            "type": "Integer", 
            "modifiers": [], 
            "references": [], 
            "location": {
                "column": 21, 
                "line": 809
            }, 
            "name": "minutes"
        }, 
        {
            "type": "Time", 
            "modifiers": [], 
            "references": [], 
            "location": {
                "column": 18, 
                "line": 810
            }, 
            "name": "startTime"
        }, 
        {
            "type": "Time", 
            "modifiers": [], 
            "references": [], 
            "location": {
                "column": 18, 
                "line": 816
            }, 
            "name": "endTime"
        }, 
        {
            "type": "Datetime", 
            "modifiers": [], 
            "references": [], 
            "location": {
                "column": 22, 
                "line": 817
            }, 
            "name": "eventStartDate"
        }, 
        {
            "type": "Datetime", 
            "modifiers": [], 
            "references": [], 
            "location": {
                "column": 22, 
                "line": 819
            }, 
            "name": "eventEndDate"
        }, 
        {
            "type": "LIST", 
            "modifiers": [], 
            "references": [], 
            "location": {
                "column": 57, 
                "line": 854
            }, 
            "name": "appointmentLst"
        }, 
        {
            "type": "Map", 
            "modifiers": [], 
            "references": [], 
            "location": {
                "column": 93, 
                "line": 854
            }, 
            "name": "saveDataMap"
        }, 
        {
            "type": "Boolean", 
            "modifiers": [], 
            "references": [], 
            "location": {
                "column": 18, 
                "line": 858
            }, 
            "name": "isClassAppointment"
        }, 
        {
            "type": "Contact", 
            "modifiers": [], 
            "references": [], 
            "location": {
                "column": 21, 
                "line": 869
            }, 
            "name": "patinet"
        }, 
        {
            "type": "Contact", 
            "modifiers": [], 
            "references": [], 
            "location": {
                "column": 21, 
                "line": 870
            }, 
            "name": "newPatient"
        }, 
        {
            "type": "Boolean", 
            "modifiers": [], 
            "references": [], 
            "location": {
                "column": 21, 
                "line": 871
            }, 
            "name": "isNewPatient"
        }, 
        {
            "type": "RecordType", 
            "modifiers": [], 
            "references": [], 
            "location": {
                "column": 28, 
                "line": 879
            }, 
            "name": "rectype"
        }, 
        {
            "type": "LIST", 
            "modifiers": [], 
            "references": [], 
            "location": {
                "column": 33, 
                "line": 900
            }, 
            "name": "eventRelationLst"
        }, 
        {
            "type": "Event", 
            "modifiers": [], 
            "references": [], 
            "location": {
                "column": 23, 
                "line": 901
            }, 
            "name": "e"
        }, 
        {
            "type": "EventRelation", 
            "modifiers": [], 
            "references": [], 
            "location": {
                "column": 31, 
                "line": 903
            }, 
            "name": "evrel"
        }
    ], 
    "id": "01p28000006LZf5AAG", 
    "methods": [
        {
            "modifiers": [
                "private"
            ], 
            "name": "isAllResourceAvailable", 
            "parameters": [
                {
                    "type": "Map", 
                    "name": "calendar"
                }
            ], 
            "visibility": "PRIVATE", 
            "references": [], 
            "location": {
                "column": 9, 
                "line": 925
            }, 
            "returnType": "Boolean", 
            "type": null
        }, 
        {
            "modifiers": [
                "static", 
                "public"
            ], 
            "name": "insertEventRelations", 
            "parameters": [
                {
                    "type": "Event", 
                    "name": "ev"
                }, 
                {
                    "type": "Set", 
                    "name": "Contactids"
                }
            ], 
            "visibility": "PUBLIC", 
            "references": [], 
            "location": {
                "column": 23, 
                "line": 14
            }, 
            "returnType": "Boolean", 
            "type": null
        }, 
        {
            "modifiers": [
                "static", 
                "public"
            ], 
            "name": "isAllResourceBookingAvailable", 
            "parameters": [
                {
                    "type": "String", 
                    "name": "startTime"
                }, 
                {
                    "type": "String", 
                    "name": "EndTime"
                }, 
                {
                    "type": "Map", 
                    "name": "Rescal"
                }, 
                {
                    "type": "Integer", 
                    "name": "itr"
                }
            ], 
            "visibility": "PUBLIC", 
            "references": [], 
            "location": {
                "column": 24, 
                "line": 40
            }, 
            "returnType": "Boolean", 
            "type": null
        }, 
        {
            "modifiers": [
                "private", 
                "static"
            ], 
            "name": "InitialiseSavedatakeys", 
            "parameters": [], 
            "visibility": "PRIVATE", 
            "references": [], 
            "location": {
                "column": 21, 
                "line": 62
            }, 
            "returnType": "void", 
            "type": null
        }, 
        {
            "modifiers": [
                "static", 
                "public"
            ], 
            "name": "saveWorkingTS", 
            "parameters": [
                {
                    "type": "Map", 
                    "name": "saveData"
                }
            ], 
            "visibility": "PUBLIC", 
            "references": [], 
            "location": {
                "column": 22, 
                "line": 70
            }, 
            "returnType": "String", 
            "type": null
        }, 
        {
            "modifiers": [
                "static", 
                "public"
            ], 
            "name": "saveUnavailability", 
            "parameters": [
                {
                    "type": "Map", 
                    "name": "clientDataMap"
                }
            ], 
            "visibility": "PUBLIC", 
            "references": [], 
            "location": {
                "column": 22, 
                "line": 189
            }, 
            "returnType": "String", 
            "type": null
        }, 
        {
            "modifiers": [
                "static", 
                "public"
            ], 
            "name": "saveRecurringAppointments", 
            "parameters": [
                {
                    "type": "Map", 
                    "name": "jsonData"
                }, 
                {
                    "type": "Integer", 
                    "name": "recurringCode"
                }
            ], 
            "visibility": "PUBLIC", 
            "references": [], 
            "location": {
                "column": 22, 
                "line": 385
            }, 
            "returnType": "String", 
            "type": null
        }, 
        {
            "modifiers": [
                "static", 
                "public"
            ], 
            "name": "BookeResources", 
            "parameters": [
                {
                    "type": "String", 
                    "name": "ServiceProviderId"
                }, 
                {
                    "type": "Map", 
                    "name": "allocatedResources"
                }, 
                {
                    "type": "Map", 
                    "name": "assistants"
                }, 
                {
                    "type": "Map", 
                    "name": "saveDataMap"
                }, 
                {
                    "type": "Date", 
                    "name": "RecurringStartDate"
                }, 
                {
                    "type": "Date", 
                    "name": "RecurringendDate"
                }
            ], 
            "visibility": "PUBLIC", 
            "references": [], 
            "location": {
                "column": 20, 
                "line": 670
            }, 
            "returnType": "void", 
            "type": null
        }, 
        {
            "modifiers": [
                "static", 
                "public"
            ], 
            "name": "addCustomerToAppointment", 
            "parameters": [
                {
                    "type": "LIST", 
                    "name": "appointmentLst"
                }, 
                {
                    "type": "Map", 
                    "name": "saveDataMap"
                }
            ], 
            "visibility": "PUBLIC", 
            "references": [], 
            "location": {
                "column": 20, 
                "line": 854
            }, 
            "returnType": "void", 
            "type": null
        }
    ]
}