{
    "properties": [], 
    "externalReferences": [], 
    "innerClasses": [], 
    "interfaces": [], 
    "constructors": [
        {
            "modifiers": [
                "public"
            ], 
            "name": "SendNotificationEmails", 
            "parameters": [], 
            "visibility": "PUBLIC", 
            "references": [], 
            "location": {
                "column": 12, 
                "line": 9
            }, 
            "type": null
        }
    ], 
    "namespace": null, 
    "name": "SendNotificationEmails", 
    "tableDeclaration": {
        "type": "SendNotificationEmails", 
        "modifiers": [
            "public"
        ], 
        "references": [], 
        "location": {
            "column": 14, 
            "line": 7
        }, 
        "name": "SendNotificationEmails"
    }, 
    "key": "01p28000006JikiAAC", 
    "variables": [
        {
            "type": "Set", 
            "modifiers": [], 
            "references": [], 
            "location": {
                "column": 45, 
                "line": 16
            }, 
            "name": "SetEvIDs"
        }, 
        {
            "type": "Boolean", 
            "modifiers": [], 
            "references": [], 
            "location": {
                "column": 62, 
                "line": 16
            }, 
            "name": "isOnlyEvent"
        }, 
        {
            "type": "Boolean", 
            "modifiers": [], 
            "references": [], 
            "location": {
                "column": 82, 
                "line": 16
            }, 
            "name": "isUpdate"
        }, 
        {
            "type": "LIST", 
            "modifiers": [], 
            "references": [], 
            "location": {
                "column": 17, 
                "line": 18
            }, 
            "name": "ListnewEvents"
        }, 
        {
            "type": "LIST", 
            "modifiers": [], 
            "references": [], 
            "location": {
                "column": 18, 
                "line": 19
            }, 
            "name": "listEmailTemNames"
        }, 
        {
            "type": "LIST", 
            "modifiers": [], 
            "references": [], 
            "location": {
                "column": 25, 
                "line": 20
            }, 
            "name": "lisEmailTemps"
        }, 
        {
            "type": "LIST", 
            "modifiers": [], 
            "references": [], 
            "location": {
                "column": 30, 
                "line": 30
            }, 
            "name": "listevrels"
        }, 
        {
            "type": "LIST", 
            "modifiers": [], 
            "references": [], 
            "location": {
                "column": 45, 
                "line": 31
            }, 
            "name": "ListSingleMails"
        }, 
        {
            "type": "EmailTemplate", 
            "modifiers": [], 
            "references": [], 
            "location": {
                "column": 24, 
                "line": 32
            }, 
            "name": "EmailTempService"
        }, 
        {
            "type": "EmailTemplate", 
            "modifiers": [], 
            "references": [], 
            "location": {
                "column": 24, 
                "line": 33
            }, 
            "name": "EmailTempCustomer"
        }, 
        {
            "type": "EmailTemplate", 
            "modifiers": [], 
            "references": [], 
            "location": {
                "column": 24, 
                "line": 34
            }, 
            "name": "EmailTempServiceCancelled"
        }, 
        {
            "type": "EmailTemplate", 
            "modifiers": [], 
            "references": [], 
            "location": {
                "column": 24, 
                "line": 35
            }, 
            "name": "EmailTempCustomerCancelled"
        }, 
        {
            "type": "EmailTemplate", 
            "modifiers": [], 
            "references": [], 
            "location": {
                "column": 24, 
                "line": 36
            }, 
            "name": "EmailTempServiceUpdated"
        }, 
        {
            "type": "EmailTemplate", 
            "modifiers": [], 
            "references": [], 
            "location": {
                "column": 24, 
                "line": 37
            }, 
            "name": "EmailTempCustomerUpdated"
        }, 
        {
            "type": "EmailTemplate", 
            "modifiers": [], 
            "references": [], 
            "location": {
                "column": 24, 
                "line": 38
            }, 
            "name": "EmailTempServiceEmptyClass"
        }, 
        {
            "type": "EmailTemplate", 
            "modifiers": [], 
            "references": [], 
            "location": {
                "column": 24, 
                "line": 39
            }, 
            "name": "EmailTempServiceProviderReminder"
        }, 
        {
            "type": "EmailTemplate", 
            "modifiers": [], 
            "references": [], 
            "location": {
                "column": 24, 
                "line": 40
            }, 
            "name": "EmailTempServiceProviderClsUpdate"
        }, 
        {
            "type": "EmailTemplate", 
            "modifiers": [], 
            "references": [], 
            "location": {
                "column": 35, 
                "line": 57
            }, 
            "name": "etemp"
        }, 
        {
            "type": "Set", 
            "modifiers": [], 
            "references": [], 
            "location": {
                "column": 24, 
                "line": 81
            }, 
            "name": "seteventids"
        }, 
        {
            "type": "Set", 
            "modifiers": [], 
            "references": [], 
            "location": {
                "column": 24, 
                "line": 82
            }, 
            "name": "setevwhoids"
        }, 
        {
            "type": "Event", 
            "modifiers": [], 
            "references": [], 
            "location": {
                "column": 27, 
                "line": 83
            }, 
            "name": "e1"
        }, 
        {
            "type": "Event", 
            "modifiers": [], 
            "references": [], 
            "location": {
                "column": 25, 
                "line": 101
            }, 
            "name": "e1"
        }, 
        {
            "type": "SingleEmailMessage", 
            "modifiers": [], 
            "references": [], 
            "location": {
                "column": 58, 
                "line": 109
            }, 
            "name": "MailSP"
        }, 
        {
            "type": "EventRelation", 
            "modifiers": [], 
            "references": [], 
            "location": {
                "column": 49, 
                "line": 114
            }, 
            "name": "evrel"
        }, 
        {
            "type": "SingleEmailMessage", 
            "modifiers": [], 
            "references": [], 
            "location": {
                "column": 63, 
                "line": 116
            }, 
            "name": "MailCust"
        }, 
        {
            "type": "SingleEmailMessage", 
            "modifiers": [], 
            "references": [], 
            "location": {
                "column": 59, 
                "line": 125
            }, 
            "name": "MailSP"
        }, 
        {
            "type": "EventRelation", 
            "modifiers": [], 
            "references": [], 
            "location": {
                "column": 49, 
                "line": 130
            }, 
            "name": "evrel"
        }, 
        {
            "type": "SingleEmailMessage", 
            "modifiers": [], 
            "references": [], 
            "location": {
                "column": 63, 
                "line": 132
            }, 
            "name": "MailCust"
        }, 
        {
            "type": "SingleEmailMessage", 
            "modifiers": [], 
            "references": [], 
            "location": {
                "column": 56, 
                "line": 142
            }, 
            "name": "MailSP"
        }, 
        {
            "type": "EventRelation", 
            "modifiers": [], 
            "references": [], 
            "location": {
                "column": 47, 
                "line": 147
            }, 
            "name": "evrel"
        }, 
        {
            "type": "SingleEmailMessage", 
            "modifiers": [], 
            "references": [], 
            "location": {
                "column": 62, 
                "line": 149
            }, 
            "name": "MailCust"
        }, 
        {
            "type": "SingleEmailMessage", 
            "modifiers": [], 
            "references": [], 
            "location": {
                "column": 60, 
                "line": 160
            }, 
            "name": "MailSP"
        }, 
        {
            "type": "EventRelation", 
            "modifiers": [], 
            "references": [], 
            "location": {
                "column": 51, 
                "line": 168
            }, 
            "name": "evrel"
        }, 
        {
            "type": "SingleEmailMessage", 
            "modifiers": [], 
            "references": [], 
            "location": {
                "column": 65, 
                "line": 170
            }, 
            "name": "MailCust"
        }, 
        {
            "type": "SingleEmailMessage", 
            "modifiers": [], 
            "references": [], 
            "location": {
                "column": 60, 
                "line": 179
            }, 
            "name": "MailSP"
        }, 
        {
            "type": "EventRelation", 
            "modifiers": [], 
            "references": [], 
            "location": {
                "column": 51, 
                "line": 187
            }, 
            "name": "evrel"
        }, 
        {
            "type": "SingleEmailMessage", 
            "modifiers": [], 
            "references": [], 
            "location": {
                "column": 65, 
                "line": 189
            }, 
            "name": "MailCust"
        }, 
        {
            "type": "LIST", 
            "modifiers": [], 
            "references": [], 
            "location": {
                "column": 50, 
                "line": 198
            }, 
            "name": "mailresult"
        }, 
        {
            "type": "Id", 
            "modifiers": [], 
            "references": [], 
            "location": {
                "column": 51, 
                "line": 221
            }, 
            "name": "Eventid"
        }, 
        {
            "type": "Id", 
            "modifiers": [], 
            "references": [], 
            "location": {
                "column": 62, 
                "line": 221
            }, 
            "name": "relationid"
        }, 
        {
            "type": "Boolean", 
            "modifiers": [], 
            "references": [], 
            "location": {
                "column": 81, 
                "line": 221
            }, 
            "name": "iscancelled"
        }, 
        {
            "type": "LIST", 
            "modifiers": [], 
            "references": [], 
            "location": {
                "column": 40, 
                "line": 223
            }, 
            "name": "ListSingleMails"
        }, 
        {
            "type": "EmailTemplate", 
            "modifiers": [], 
            "references": [], 
            "location": {
                "column": 19, 
                "line": 224
            }, 
            "name": "EmailTempCustomer"
        }, 
        {
            "type": "EmailTemplate", 
            "modifiers": [], 
            "references": [], 
            "location": {
                "column": 19, 
                "line": 225
            }, 
            "name": "EmailTempCustomerCancelled"
        }, 
        {
            "type": "SingleEmailMessage", 
            "modifiers": [], 
            "references": [], 
            "location": {
                "column": 38, 
                "line": 238
            }, 
            "name": "MailCust"
        }, 
        {
            "type": "SingleEmailMessage", 
            "modifiers": [], 
            "references": [], 
            "location": {
                "column": 38, 
                "line": 243
            }, 
            "name": "MailCust"
        }, 
        {
            "type": "LIST", 
            "modifiers": [], 
            "references": [], 
            "location": {
                "column": 38, 
                "line": 248
            }, 
            "name": "mailresult"
        }, 
        {
            "type": "Id", 
            "modifiers": [], 
            "references": [], 
            "location": {
                "column": 53, 
                "line": 268
            }, 
            "name": "recipient"
        }, 
        {
            "type": "Id", 
            "modifiers": [], 
            "references": [], 
            "location": {
                "column": 67, 
                "line": 268
            }, 
            "name": "candidate"
        }, 
        {
            "type": "Boolean", 
            "modifiers": [], 
            "references": [], 
            "location": {
                "column": 85, 
                "line": 268
            }, 
            "name": "withtemplate"
        }, 
        {
            "type": "String", 
            "modifiers": [], 
            "references": [], 
            "location": {
                "column": 105, 
                "line": 268
            }, 
            "name": "message"
        }, 
        {
            "type": "String", 
            "modifiers": [], 
            "references": [], 
            "location": {
                "column": 120, 
                "line": 268
            }, 
            "name": "Stacktrace"
        }, 
        {
            "type": "LIST", 
            "modifiers": [], 
            "references": [], 
            "location": {
                "column": 27, 
                "line": 272
            }, 
            "name": "Listemailtemp"
        }, 
        {
            "type": "SingleEmailMessage", 
            "modifiers": [], 
            "references": [], 
            "location": {
                "column": 35, 
                "line": 274
            }, 
            "name": "mail"
        }, 
        {
            "type": "LIST", 
            "modifiers": [], 
            "references": [], 
            "location": {
                "column": 52, 
                "line": 276
            }, 
            "name": "allmsg"
        }, 
        {
            "type": "Id", 
            "modifiers": [], 
            "references": [], 
            "location": {
                "column": 14, 
                "line": 281
            }, 
            "name": "templateId"
        }, 
        {
            "type": "String", 
            "modifiers": [], 
            "references": [], 
            "location": {
                "column": 18, 
                "line": 307
            }, 
            "name": "plainTextBody"
        }, 
        {
            "type": "LIST", 
            "modifiers": [], 
            "references": [], 
            "location": {
                "column": 40, 
                "line": 316
            }, 
            "name": "mailresult"
        }, 
        {
            "type": "Id", 
            "modifiers": [], 
            "references": [], 
            "location": {
                "column": 62, 
                "line": 334
            }, 
            "name": "evid"
        }, 
        {
            "type": "Id", 
            "modifiers": [], 
            "references": [], 
            "location": {
                "column": 70, 
                "line": 334
            }, 
            "name": "evwhoid"
        }, 
        {
            "type": "Id", 
            "modifiers": [], 
            "references": [], 
            "location": {
                "column": 81, 
                "line": 334
            }, 
            "name": "emailtemplateid"
        }, 
        {
            "type": "String", 
            "modifiers": [], 
            "references": [], 
            "location": {
                "column": 104, 
                "line": 334
            }, 
            "name": "dispname"
        }, 
        {
            "type": "SingleEmailMessage", 
            "modifiers": [], 
            "references": [], 
            "location": {
                "column": 36, 
                "line": 336
            }, 
            "name": "MailSP"
        }
    ], 
    "id": "01p28000006JikiAAC", 
    "methods": [
        {
            "modifiers": [
                "static", 
                "public"
            ], 
            "name": "SendEmail", 
            "parameters": [
                {
                    "type": "Set", 
                    "name": "SetEvIDs"
                }, 
                {
                    "type": "Boolean", 
                    "name": "isOnlyEvent"
                }, 
                {
                    "type": "Boolean", 
                    "name": "isUpdate"
                }
            ], 
            "visibility": "PUBLIC", 
            "references": [], 
            "location": {
                "column": 27, 
                "line": 16
            }, 
            "returnType": "Boolean", 
            "type": null
        }, 
        {
            "modifiers": [
                "static", 
                "public"
            ], 
            "name": "SendEmailtoSinglepatient", 
            "parameters": [
                {
                    "type": "Id", 
                    "name": "Eventid"
                }, 
                {
                    "type": "Id", 
                    "name": "relationid"
                }, 
                {
                    "type": "Boolean", 
                    "name": "iscancelled"
                }
            ], 
            "visibility": "PUBLIC", 
            "references": [], 
            "location": {
                "column": 23, 
                "line": 221
            }, 
            "returnType": "Boolean", 
            "type": null
        }, 
        {
            "modifiers": [
                "static", 
                "public"
            ], 
            "name": "sendEmailForExportCalendar", 
            "parameters": [
                {
                    "type": "Id", 
                    "name": "recipient"
                }, 
                {
                    "type": "Id", 
                    "name": "candidate"
                }, 
                {
                    "type": "Boolean", 
                    "name": "withtemplate"
                }, 
                {
                    "type": "String", 
                    "name": "message"
                }, 
                {
                    "type": "String", 
                    "name": "Stacktrace"
                }
            ], 
            "visibility": "PUBLIC", 
            "references": [], 
            "location": {
                "column": 23, 
                "line": 268
            }, 
            "returnType": "Boolean", 
            "type": null
        }, 
        {
            "modifiers": [
                "static", 
                "public"
            ], 
            "name": "getmailmessage", 
            "parameters": [
                {
                    "type": "Id", 
                    "name": "evid"
                }, 
                {
                    "type": "Id", 
                    "name": "evwhoid"
                }, 
                {
                    "type": "Id", 
                    "name": "emailtemplateid"
                }, 
                {
                    "type": "String", 
                    "name": "dispname"
                }
            ], 
            "visibility": "PUBLIC", 
            "references": [], 
            "location": {
                "column": 44, 
                "line": 334
            }, 
            "returnType": "SingleEmailMessage", 
            "type": null
        }
    ]
}